Categories:Writing
License:Apache2
Web Site:
Source Code:https://github.com/knirirr/BeeCount
Issue Tracker:https://github.com/knirirr/BeeCount/issues

Auto Name:BeeCount
Summary:Knitting row counter
Description:
A knitting project helper, with the following features:

* Keep track of several knitting projects.
* For each project, track several items which need counting, e.g. rows, pattern repeats etc
* Allow counting up, down and re-setting to zero of these counts.
* Allow editing of projects to add, remove or change counts after project creation.
* Link counts together so that one increments another.
* Set row alerts and cause counts to reset at particular values.
* Allow backing up and restoring of the entire projects database.
.

Repo Type:git
Repo:https://github.com/knirirr/BeeCount.git

Build:1.2.1,47
    disable=repo changed
    commit=1.2.1
    target=android-15

Build:1.2.2,48
    disable=repo changed
    commit=1.2.2
    target=android-15

Build:1.2.3,50
    disable=repo changed
    commit=1.2.3
    target=android-15

Build:1.2.5,53
    disable=repo changed
    commit=1.2.5
    target=android-15

Build:1.2.7,56
    disable=repo changed
    commit=1.2.7
    target=android-15

Build:1.2.8,59
    disable=wrongly tagged, as is 1.2.9

Build:1.2.10,62
    disable=repo changed
    commit=1.2.10
    target=android-15

Build:2.0.0,67
    disable=upstream needs fixing
    commit=2.0.0
    subdir=beecount
    gradle=yes

Build:2.0.1,68
    commit=2.0.1
    subdir=beecount
    gradle=yes
    forceversion=yes

Build:2.0.4,72
    commit=2.0.4
    subdir=beecount
    gradle=yes

Build:2.0.5,73
    commit=2.0.5
    subdir=beecount
    gradle=yes

Build:2.0.6,74
    commit=2.0.6
    subdir=beecount
    gradle=yes

Build:2.0.7,75
    commit=2.0.7
    subdir=beecount
    gradle=yes

Build:2.0.8,76
    commit=2.0.8
    subdir=beecount
    gradle=yes

Build:2.0.9,77
    commit=2.0.9
    subdir=beecount
    gradle=yes

Build:2.0.10,78
    commit=2.0.10
    subdir=beecount
    gradle=yes

Build:2.1.0-beta,79
    disable=beta
    commit=2.1.0-beta
    subdir=beecount
    gradle=yes

Build:2.2.0,82
    commit=2.2.0
    subdir=beecount
    gradle=yes

Build:2.3.0,87
    commit=2.3.0
    subdir=beecount
    gradle=yes

Build:2.3.1,91
    commit=2.3.1
    subdir=beecount
    gradle=yes

Build:2.3.2,92
    commit=2.3.2
    subdir=beecount
    gradle=yes

Build:2.3.4,93
    commit=2.3.4
    subdir=beecount
    gradle=yes

Build:2.3.5,94
    commit=2.3.5
    subdir=beecount
    gradle=yes

Build:2.3.6,96
    commit=2.3.6
    subdir=beecount
    gradle=yes

Build:2.3.7-r1,104
    commit=2.3.7-r1
    subdir=beecount
    gradle=yes

Build:2.3.7-r2,105
    commit=2.3.7-r2
    subdir=beecount
    gradle=yes

Build:2.3.8,108
    commit=2.3.8
    subdir=beecount
    gradle=yes

Build:2.3.9,109
    commit=2.3.9
    subdir=beecount
    gradle=yes

Build:2.4.1,114
    commit=2.4.1
    subdir=beecount
    gradle=yes

Build:2.4.2,115
    disable=misconfigured beta plugin version
    commit=2.4.2
    subdir=beecount
    gradle=yes

Build:2.4.3,116
    disable=misconfigured beta plugin version
    commit=2.4.3
    subdir=beecount
    gradle=yes

Build:2.4.4,117
    commit=2.4.4
    subdir=beecount
    gradle=yes

Auto Update Mode:Version %v
Update Check Mode:Tags
Current Version:2.4.4
Current Version Code:117
